-------------------------------------------------------------------------------
Test set: hu.bh10.petsaverapp.service.PetServiceTest
-------------------------------------------------------------------------------
Tests run: 2, Failures: 0, Errors: 0, Skipped: 0, Time elapsed: 0.138 sec
