C:\Users\User\Documents\NetBeansProjects\petsaverapp\petsaverapp\src\test\java\hu\bh10\petsaverapp\service\FoundFormServiceTest.java
C:\Users\User\Documents\NetBeansProjects\petsaverapp\petsaverapp\src\test\java\hu\bh10\petsaverapp\service\UserServiceTest.java
C:\Users\User\Documents\NetBeansProjects\petsaverapp\petsaverapp\src\test\java\hu\bh10\petsaverapp\service\AnnouncerServiceTest.java
C:\Users\User\Documents\NetBeansProjects\petsaverapp\petsaverapp\src\test\java\hu\bh10\petsaverapp\service\PetServiceTest.java
